…
# Data Visualization Project 02




```r
df <- read_csv("C:\\Users\\Aweso\\Documents\\GitHub\\dataviz_final_project\\data\\NBAchampionsdata_with_locations.csv")
df
```

```
## # A tibble: 220 x 28
##     Year Team     Game   Win  Home    MP    FG   FGA   FGP    TP   TPA    TPP
##    <dbl> <chr>   <dbl> <dbl> <dbl> <dbl> <dbl> <dbl> <dbl> <dbl> <dbl>  <dbl>
##  1  1980 Lakers      1     1     1   240    48    89 0.539     0     0 NA    
##  2  1980 Lakers      2     0     1   240    48    95 0.505     0     1  0    
##  3  1980 Lakers      3     1     0   240    44    92 0.478     0     1  0    
##  4  1980 Lakers      4     0     0   240    44    93 0.473     0     0 NA    
##  5  1980 Lakers      5     1     1   240    41    91 0.451     0     0 NA    
##  6  1980 Lakers      6     1     0   240    45    92 0.489     0     2  0    
##  7  1981 Celtics     1     1     1   240    41    95 0.432     0     1  0    
##  8  1981 Celtics     2     0     1   240    41    82 0.5       0     3  0    
##  9  1981 Celtics     3     1     0   240    40    89 0.449     2     3  0.667
## 10  1981 Celtics     4     0     0   240    35    74 0.473     0     3  0    
## # ... with 210 more rows, and 16 more variables: FT <dbl>, FTA <dbl>,
## #   FTP <dbl>, ORB <dbl>, DRB <dbl>, TRB <dbl>, AST <dbl>, STL <dbl>,
## #   BLK <dbl>, TOV <dbl>, PF <dbl>, PTS <dbl>, City <chr>, State <chr>,
## #   Longitude <dbl>, Latitude <dbl>
```
…
