…
```r
df
```

```
## # A tibble: 100 x 6
##     Rank Song              Artist                             Year Lyrics Source
##    <dbl> <chr>             <chr>                             <dbl> <chr>   <dbl>
##  1     1 uptown funk       mark ronson featuring bruno mars   2015 this ~      1
##  2     2 thinking out loud ed sheeran                         2015 when ~      1
##  3     3 see you again     wiz khalifa featuring charlie pu~  2015 its b~      1
##  4     4 trap queen        fetty wap                          2015 im li~      1
##  5     5 sugar             maroon 5                           2015 im hu~      1
##  6     6 shut up and dance walk the moon                      2015 oh do~      1
##  7     7 blank space       taylor swift                       2015 nice ~      1
##  8     8 watch me          silento                            2015 now w~      1
##  9     9 earned it         the weeknd                         2015 you m~      1
## 10    10 the hills         the weeknd                         2015 your ~      1
## # ... with 90 more rows
```
…
